Prediction & Model Uncertainty
…
Provide `newdata` with a data frame of values of covariates

---

# `predict()`

```r
new_year <- with(shrimp, tibble(year = seq(min(year), max(year), length.out = 100)))
pred <- predict(m_rich, newdata = new_year, se.fit = TRUE, type = 'link')
pred <- bind_cols(new_year, as_tibble(as.data.frame(pred)))
pred
```

```
## # A tibble: 100 x 3
##     year   fit  se.fit
##    <dbl> <dbl>   <dbl>
##  1 2005   3.05 0.0100 
##  2 2005.  3.05 0.00901
##  3 2005.  3.06 0.00830
##  4 2005.  3.06 0.00792
##  5 2005.  3.06 0.00786
##  6 2005.  3.06 0.00807
##  7 2006.  3.07 0.00844
##  8 2006.  3.07 0.00887
##  9 2006.  3.07 0.00926
## 10 2006.  3.08 0.00955
## # … with 90 more rows
```
---

# `predict()` &rarr; response scale

```r
ilink <- inv_link(m_rich)                         # inverse link function
crit <- qnorm((1 - 0.89) / 2, lower.tail = FALSE) # or just `crit <- 2`
pred <- mutate(pred, richness = ilink(fit),
               lwr = ilink(fit - (crit * se.fit)), # lower...
               upr = ilink(fit + (crit * se.fit))) # upper credible interval
pred
```

```
## # A tibble: 100 x 6
##     year   fit  se.fit richness   lwr   upr
##    <dbl> <dbl>   <dbl>    <dbl> <dbl> <dbl>
##  1 2005   3.05 0.0100      21.1  20.8  21.4
##  2 2005.  3.05 0.00901     21.2  20.9  21.5
##  3 2005.  3.06 0.00830     21.2  20.9  21.5
##  4 2005.  3.06 0.00792     21.3  21.0  21.6
##  5 2005.  3.06 0.00786     21.4  21.1  21.6
##  6 2005.  3.06 0.00807     21.4  21.1  21.7
##  7 2006.  3.07 0.00844     21.5  21.2  21.8
##  8 2006.  3.07 0.00887     21.6  21.3  21.9
##  9 2006.  3.07 0.00926     21.6  21.3  22.0
## 10 2006.  3.08 0.00955     21.7  21.4  22.0
## # … with 90 more rows
```
…
# `predict()` for space and time

This idea is very general;  spatiotemporal model needs a grid of x,y coordinates for each year

```r
sp_new <- with(shrimp, expand.grid(x = seq_min_max(x, n = 100), y = seq_min_max(y, n = 100),
                                   year = unique(year), area_trawled = median(area_trawled)))
sp_pred <- predict(m_spt, newdata = sp_new, se.fit = TRUE) # link scale is default
sp_pred <- bind_cols(as_tibble(sp_new), as_tibble(as.data.frame(sp_pred)))
sp_pred
```

```
## # A tibble: 100,000 x 6
##          x        y  year area_trawled   fit se.fit
##      <dbl>    <dbl> <int>        <dbl> <dbl>  <dbl>
##  1 428238. 5078244.  2005        0.250  3.47  1.06 
##  2 436886. 5078244.  2005        0.250  3.45  1.06 
##  3 445535. 5078244.  2005        0.250  3.43  1.05 
##  4 454183. 5078244.  2005        0.250  3.41  1.04 
##  5 462831. 5078244.  2005        0.250  3.38  1.03 
##  6 471479. 5078244.  2005        0.250  3.36  1.02 
##  7 480127. 5078244.  2005        0.250  3.33  1.01 
##  8 488775. 5078244.  2005        0.250  3.30  1.00 
##  9 497423. 5078244.  2005        0.250  3.26  0.994
## 10 506071. 5078244.  2005        0.250  3.23  0.985
## # … with 99,990 more rows
```
---

# `predict()` &rarr; response scale

```r
ilink <- inv_link(m_spt)
too_far <- exclude.too.far(sp_pred$x, sp_pred$y, shrimp$x, shrimp$y, dist = 0.1)
sp_pred <- sp_pred %>% mutate(biomass = ilink(fit),
                              biomass = case_when(too_far ~ NA_real_,
                                                  TRUE ~ biomass))
sp_pred
```

```
## # A tibble: 100,000 x 7
##          x        y  year area_trawled   fit se.fit biomass
##      <dbl>    <dbl> <int>        <dbl> <dbl>  <dbl>   <dbl>
##  1 428238. 5078244.  2005        0.250  3.47  1.06       NA
##  2 436886. 5078244.  2005        0.250  3.45  1.06       NA
##  3 445535. 5078244.  2005        0.250  3.43  1.05       NA
##  4 454183. 5078244.  2005        0.250  3.41  1.04       NA
##  5 462831. 5078244.  2005        0.250  3.38  1.03       NA
##  6 471479. 5078244.  2005        0.250  3.36  1.02       NA
##  7 480127. 5078244.  2005        0.250  3.33  1.01       NA
##  8 488775. 5078244.  2005        0.250  3.30  1.00       NA
##  9 497423. 5078244.  2005        0.250  3.26  0.994      NA
## 10 506071. 5078244.  2005        0.250  3.23  0.985      NA
## # … with 99,990 more rows
```
…
